…
<img src="p8105_hw5_az2587_files/figure-gfm/unnamed-chunk-6-1.png" width="90%" />

``` r
all_unsolved
```

    ## # A tibble: 51 × 4
    ##    city_state      estimate conf.low conf.high
    ##    <chr>              <dbl>    <dbl>     <dbl>
    ##  1 Albuquerque, NM    0.386    0.337     0.438
    ##  2 Atlanta, GA        0.383    0.353     0.415
    ##  3 Baltimore, MD      0.646    0.628     0.663
    ##  4 Baton Rouge, LA    0.462    0.414     0.511
    ##  5 Birmingham, AL     0.434    0.399     0.469
    ##  6 Boston, MA         0.505    0.465     0.545
    ##  7 Buffalo, NY        0.612    0.569     0.654
    ##  8 Charlotte, NC      0.300    0.266     0.336
    ##  9 Chicago, IL        0.736    0.724     0.747
    ## 10 Cincinnati, OH     0.445    0.408     0.483
    ## # … with 41 more rows
…
longitudinal
```

    ## # A tibble: 160 × 4
    ##    arm   id    week  observation
    ##    <fct> <chr> <chr>       <dbl>
    ##  1 con   01    1            0.2 
    ##  2 con   01    2           -1.31
    ##  3 con   01    3            0.66
    ##  4 con   01    4            1.96
    ##  5 con   01    5            0.23
    ##  6 con   01    6            1.09
    ##  7 con   01    7            0.05
    ##  8 con   01    8            1.94
    ##  9 con   02    1            1.13
    ## 10 con   02    2           -0.88
    ## # … with 150 more rows
…
iris_full = map(iris_with_missing, replace_missing) %>% 
  as_tibble()

iris_full
```

    ## # A tibble: 150 × 5
    ##    Sepal.Length Sepal.Width Petal.Length Petal.Width Species  
    ##           <dbl>       <dbl>        <dbl>       <dbl> <chr>    
    ##  1         5.1         3.5          1.4          0.2 setosa   
    ##  2         4.9         3.07         1.4          0.2 setosa   
    ##  3         4.7         3.2          1.3          0.2 setosa   
    ##  4         5.81        3.1          1.5          0.2 setosa   
    ##  5         5           3.6          1.4          0.2 setosa   
    ##  6         5.4         3.9          1.7          0.4 virginica
    ##  7         4.6         3.4          1.4          0.3 setosa   
    ##  8         5           3.4          3.74         0.2 setosa   
    ##  9         4.4         2.9          1.4          0.2 virginica
    ## 10         4.9         3.1          3.74         0.1 setosa   
    ## # … with 140 more rows
